[
  {
    "name": "Brand",
    "url": "/brad-url",
    "image": "/img/shop/electronics/brands/03.png"
  },
  {
    "name": "Brand",
    "url": "/brad-url",
    "image": "/img/shop/electronics/brands/06.png"
  },
  {
    "name": "Brand",
    "url": "/brad-url",
    "image": "/img/shop/electronics/brands/07.png"
  },
  {
    "name": "Brand",
    "url": "/brad-url",
    "image": "/img/shop/electronics/brands/08.png"
  },
  {
    "name": "Brand",
    "url": "/brad-url",
    "image": "/img/shop/electronics/brands/01.png"
  },
  {
    "name": "Brand",
    "url": "/brad-url",
    "image": "/img/shop/electronics/brands/02.png"
  },
  {
    "name": "Brand",
    "url": "/brad-url",
    "image": "/img/shop/electronics/brands/05.png"
  },
  {
    "name": "Brand",
    "url": "/brad-url",
    "image": "/img/shop/electronics/brands/04.png"
  },
  {
    "name": "Brand",
    "url": "/brad-url",
    "image": "/img/shop/electronics/brands/03.png"
  },
  {
    "name": "Brand",
    "url": "/brad-url",
    "image": "/img/shop/electronics/brands/06.png"
  },
  {
    "name": "Brand",
    "url": "/brad-url",
    "image": "/img/shop/electronics/brands/07.png"
  },
  {
    "name": "Brand",
    "url": "/brad-url",
    "image": "/img/shop/electronics/brands/08.png"
  },
  {
    "name": "Brand",
    "url": "/brad-url",
    "image": "/img/shop/electronics/brands/01.png"
  },
  {
    "name": "Brand",
    "url": "/brad-url",
    "image": "/img/shop/electronics/brands/02.png"
  },
  {
    "name": "Brand",
    "url": "/brad-url",
    "image": "/img/shop/electronics/brands/05.png"
  },
  {
    "name": "Brand",
    "url": "/brad-url",
    "image": "/img/shop/electronics/brands/04.png"
  }
]