[
  {
    "name": "Computers & Accessories",
    "icon": "hard-drive",
    "price": "Starting from 1 490 080 AR",
    "image": "/img/shop/electronics/categories/01.jpg"
  },
  {
    "name": "TV, Video & Audio",
    "icon": "monitor",
    "price": "Starting from 780 000 AR",
    "image": "/img/shop/electronics/categories/02.jpg"
  },
  {
    "name": "Smartphones & Tablets",
    "icon": "smartphone",
    "price": "Starting from 1 270 000 AR",
    "image": "/img/shop/electronics/categories/03.jpg"
  },
  {
    "name": "Photo Cameras",
    "icon": "camera",
    "price": "Starting from 2 100 000 AR",
    "image": "/img/shop/electronics/categories/04.jpg"
  },
  {
    "name": "Video Cameras",
    "icon": "video",
    "price": "Starting from 1 850 000 AR",
    "image": "/img/shop/electronics/categories/05.jpg"
  },
  {
    "name": "Headphones",
    "icon": "headphones",
    "price": "Starting from 350 099 AR",
    "image": "/img/shop/electronics/categories/05.jpg"
  },
  {
    "name": "Wearable Electronics",
    "icon": "watch",
    "price": "Starting from 790 050 AR",
    "image": "/img/shop/electronics/categories/06.jpg"
  },
  {
    "name": "Printers & Ink",
    "icon": "printer",
    "price": "Starting from 540 000 AR",
    "image": "/img/shop/electronics/categories/07.jpg"
  },
  {
    "name": "Video Games",
    "icon": "crosshair",
    "price": "Starting from 190 000 AR",
    "image": "/img/shop/electronics/categories/08.jpg"
  },
  {
    "name": "Speakers & Home Music",
    "icon": "speaker",
    "price": "Starting from 630 000 AR",
    "image": "/img/shop/electronics/categories/07.jpg"
  },
  {
    "name": "HDD / SSD Data Storage",
    "icon": "server",
    "price": "Starting from 240 060 AR",
    "image": "/img/shop/electronics/categories/06.jpg"
  }
]