[
  {
    "title": "Best sellers",
    "items": [
      {
        "name": "Sennheiser HD 650 Pro",
        "rating": [
          "active",
          "active",
          "active",
          "active",
          ""
        ],
        "price": "$259.99",
        "promo": "",
        "image": "/img/shop/widget/04.jpg"
      },
      {
        "name": "Amazon Cloud Cam Security",
        "rating": [
          "active",
          "active",
          "active",
          "",
          ""
        ],
        "price": "$119.99",
        "promo": "",
        "image": "/img/shop/widget/05.jpg"
      },
      {
        "name": "Samsung Galaxy S10 128GB",
        "rating": [
          "active",
          "active",
          "active",
          "active",
          "active"
        ],
        "price": "$799.00",
        "promo": "",
        "image": "/img/shop/widget/06.jpg"
      },
      {
        "name": "Xiaomi Mi Box S TV Box",
        "rating": [
          "active",
          "active",
          "active",
          "active",
          ""
        ],
        "price": "$68.99",
        "promo": "90.43",
        "image": "/img/shop/widget/14.jpg"
      }
    ]
  },
  {
    "title": "New arrivals",
    "items": [
      {
        "name": "Apple iMac (27-inch Retina 5K",
        "rating": [],
        "price": "$1,949.00",
        "promo": "",
        "image": "/img/shop/widget/15.jpg"
      },
      {
        "name": "HP Laserjet Pro All in One",
        "rating": [],
        "price": "$428.60",
        "promo": "",
        "image": "/img/shop/widget/17.jpg"
      },
      {
        "name": "PS4 Dual Shock Controller Charger",
        "rating": [],
        "price": "$14.97",
        "promo": "16.47",
        "image": "/img/shop/widget/16.jpg"
      },
      {
        "name": "Apple Watch Series 4 Silver",
        "rating": [],
        "price": "$399.00",
        "promo": "",
        "image": "/img/shop/widget/18.jpg"
      }
    ]
  },
  {
    "title": "Top rated",
    "items": [
      {
        "name": "Samsung Galaxy S9 Plus 128GB",
        "rating": [
          "active",
          "active",
          "active",
          "active",
          "active"
        ],
        "price": "$749.99",
        "promo": "859.99",
        "image": "/img/shop/widget/19.jpg"
      },
      {
        "name": "Edifier Bluetooth Headphones",
        "rating": [
          "active",
          "active",
          "active",
          "active",
          "active"
        ],
        "price": "$98.75",
        "promo": "",
        "image": "/img/shop/widget/21.jpg"
      },
      {
        "name": "Samsung Gear 360 (2017 Edition)",
        "rating": [
          "active",
          "active",
          "active",
          "active",
          "active"
        ],
        "price": "$107.95",
        "promo": "",
        "image": "/img/shop/widget/20.jpg"
      },
      {
        "name": "Nikon COOLPIX Digital Camera",
        "rating": [
          "active",
          "active",
          "active",
          "active",
          "active"
        ],
        "price": "$210.00",
        "promo": "249.00",
        "image": "/img/shop/widget/22.jpg"
      }
    ]
  }
]