[
  {
    "id": 1,
    "created_date": "2020-08-16 18:55:14.000000",
    "status": "CREATED",
    "updated_date": null,
    "version": 0,
    "code": "M_M",
    "libelle": "Mobile Money",
    "type": null,
    "url_ext": "Operateur Local"
  },
  {
    "id": 2,
    "created_date": "2020-08-16 18:55:14.000000",
    "status": "CREATED",
    "updated_date": null,
    "version": 0,
    "code": "C_C",
    "libelle": "Carte Credit",
    "type": null,
    "url_ext": "https://www.stripe.com"
  },
  {
    "id": 3,
    "created_date": "2020-08-16 18:55:14.000000",
    "status": "CREATED",
    "updated_date": null,
    "version": 0,
    "code": "P_P",
    "libelle": "PayPal",
    "type": null,
    "url_ext": "https://www.paypal.com"
  }
]