[
  {
    "id": 600911,
    "created_date": "2020-08-29 21:53:07.000000",
    "status": "UPDATED",
    "updated_date": "2020-08-29 22:34:07.100080",
    "version": 1,
    "time_max": 1,
    "time_min": 1,
    "time_moy": 1
  },
  {
    "id": 600914,
    "created_date": "2020-08-29 22:05:01.000000",
    "status": "UPDATED",
    "updated_date": "2020-08-29 23:39:05.221872",
    "version": 7,
    "time_max": 8,
    "time_min": 3,
    "time_moy": 4
  },
  {
    "id": 600917,
    "created_date": "2020-08-29 22:15:00.000000",
    "status": "UPDATED",
    "updated_date": "2020-08-29 23:39:34.653762",
    "version": 3,
    "time_max": 3,
    "time_min": 1,
    "time_moy": 2
  },
  {
    "id": 600921,
    "created_date": "2020-08-30 00:04:01.094532",
    "status": "CREATED",
    "updated_date": null,
    "version": 0,
    "time_max": 3,
    "time_min": 1,
    "time_moy": 2
  },
  {
    "id": 600922,
    "created_date": "2020-08-30 00:09:17.408265",
    "status": "CREATED",
    "updated_date": null,
    "version": 0,
    "time_max": 0.5,
    "time_min": 0.2,
    "time_moy": 0.3
  },
  {
    "id": 600923,
    "created_date": "2020-08-30 00:10:30.868930",
    "status": "CREATED",
    "updated_date": null,
    "version": 0,
    "time_max": 4,
    "time_min": 1,
    "time_moy": 3
  },
  {
    "id": 600924,
    "created_date": "2020-08-30 00:12:40.611463",
    "status": "CREATED",
    "updated_date": null,
    "version": 0,
    "time_max": 3,
    "time_min": 1,
    "time_moy": 2
  },
  {
    "id": 600925,
    "created_date": "2020-08-30 00:19:21.000000",
    "status": "UPDATED",
    "updated_date": "2020-08-30 00:20:46.650736",
    "version": 1,
    "time_max": 1,
    "time_min": 0.3,
    "time_moy": 0.5
  },
  {
    "id": 600926,
    "created_date": "2020-08-30 00:22:11.369544",
    "status": "CREATED",
    "updated_date": null,
    "version": 0,
    "time_max": 2,
    "time_min": 1,
    "time_moy": 2
  },
  {
    "id": 600928,
    "created_date": "2020-08-30 00:23:08.000000",
    "status": "UPDATED",
    "updated_date": "2020-08-30 00:23:41.567168",
    "version": 1,
    "time_max": 1,
    "time_min": 0.3,
    "time_moy": 0.6
  },
  {
    "id": 600929,
    "created_date": "2020-08-30 00:24:43.676980",
    "status": "CREATED",
    "updated_date": null,
    "version": 0,
    "time_max": 4.5,
    "time_min": 2,
    "time_moy": 3
  }
]